<svg xmlns="http://www.w3.org/2000/svg" width="33" height="46" viewBox="0 0 33 46">
  <defs>
    <style>
      .cls-1 {
        fill: none;
        stroke: #f8a8ca;
        stroke-width: 3px;
        fill-rule: evenodd;
      }
    </style>
  </defs>
  <path id="Прямоугольник_16_копия" data-name="Прямоугольник 16 копия" class="cls-1" d="M235,229l30,21.5L235,272V229Z" transform="translate(-233.5 -227.5)"/>
</svg>
