<?xml version="1.0" encoding="utf-8"?>
<!-- Generator: Adobe Illustrator 22.0.1, SVG Export Plug-In . SVG Version: 6.00 Build 0)  -->
<svg version="1.1" id="Слой_1" xmlns="http://www.w3.org/2000/svg" xmlns:xlink="http://www.w3.org/1999/xlink" x="0px" y="0px"
	 viewBox="0 0 91.5 95.9" style="enable-background:new 0 0 91.5 95.9;" xml:space="preserve">
<style type="text/css">
	.st0{fill:#FFFFFF;}
</style>
<g>
	<path class="st0" d="M71.9,95.9H20.6c-4.8,0-8.8-3.9-8.8-8.8L4.6,53C1.8,51.6,0,48.9,0,45.8c0-4.5,3.7-8.2,8.2-8.2h75.1
		c4.5,0,8.2,3.7,8.2,8.2c0,2.7-1.3,5.1-3.4,6.6l-7.5,35.3C80.7,92,76.8,95.9,71.9,95.9L71.9,95.9z M8.2,42.9c-1.6,0-2.8,1.3-2.8,2.8
		c0,1.2,0.9,2.3,2.2,2.6c1,0.3,1.8,1.1,2,2.1l7.6,36.1c0.1,2.4,1.6,3.9,3.4,3.9h51.3c1.9,0,3.4-1.5,3.4-3.4l7.8-37
		c0.2-0.8,0.7-1.5,1.4-1.9c1-0.5,1.6-1.4,1.6-2.5c0-1.6-1.3-2.8-2.8-2.8H8.2z M8.2,42.9"/>
	<path class="st0" d="M27.5,80.1c0,1-0.9,1.9-1.9,1.9h-0.5c-1,0-1.9-0.9-1.9-1.9V57.9c0-1,0.9-1.9,1.9-1.9h0.5c1,0,1.9,0.9,1.9,1.9
		V80.1z M27.5,80.1"/>
	<path class="st0" d="M41.4,80.1c0,1-0.9,1.9-1.9,1.9H39c-1,0-1.9-0.9-1.9-1.9V57.9c0-1,0.9-1.9,1.9-1.9h0.5c1,0,1.9,0.9,1.9,1.9
		V80.1z M41.4,80.1"/>
	<path class="st0" d="M55.3,80.1c0,1-0.9,1.9-1.9,1.9h-0.5c-1,0-1.9-0.9-1.9-1.9V57.9c0-1,0.9-1.9,1.9-1.9h0.5c1,0,1.9,0.9,1.9,1.9
		V80.1z M55.3,80.1"/>
	<path class="st0" d="M69.2,80.1c0,1-0.9,1.9-1.9,1.9h-0.5c-1,0-1.9-0.9-1.9-1.9V57.9c0-1,0.9-1.9,1.9-1.9h0.5c1,0,1.9,0.9,1.9,1.9
		L69.2,80.1L69.2,80.1z M69.2,80.1"/>
	<path class="st0" d="M20.2,27.9C22,15.4,32.8,5.7,45.8,5.7c13,0,23.8,9.6,25.6,22.2c0.3,4.3,5.8,3.6,5.8,0C75.3,12.2,62,0,45.8,0
		C29.6,0,16.3,12.2,14.5,27.9C14.5,32.3,20.3,32.5,20.2,27.9L20.2,27.9z M20.2,27.9"/>
</g>
</svg>
