<?xml version="1.0" standalone="no"?>
<!DOCTYPE svg PUBLIC "-//W3C//DTD SVG 1.1//EN" "http://www.w3.org/Graphics/SVG/1.1/DTD/svg11.dtd" >
<svg xmlns="http://www.w3.org/2000/svg">
<metadata>Generated by IcoMoon</metadata>
<defs>
<font id="icomoon" horiz-adv-x="1024">
<font-face units-per-em="1024" ascent="960" descent="-64" />
<missing-glyph horiz-adv-x="1024" />
<glyph unicode="&#x20;" horiz-adv-x="512" d="" />
<glyph unicode="&#xe900;" glyph-name="close" d="M659.288 433.973c-4.275 4.148-6.927 9.947-6.927 16.365s2.653 12.217 6.922 16.36l0.006 0.005 350.685 350.685c8.178 8.547 13.407 19.974 14.023 32.613l0.005 0.117c-0.62 12.756-5.85 24.183-14.045 32.749l0.018-0.019-65.461 63.123c-8.521 8.221-19.964 13.464-32.624 14.024l-0.107 0.004c-0.996 0.083-2.155 0.13-3.325 0.13-12.587 0-23.9-5.45-31.71-14.119l-0.034-0.038-350.685-350.685c-4.148-4.275-9.947-6.927-16.365-6.927s-12.217 2.653-16.36 6.922l-0.005 0.006-350.685 350.685c-7.955 7.748-18.486 12.887-30.189 14.012l-0.204 0.016c-12.756-0.62-24.183-5.85-32.749-14.045l0.019 0.018-65.461-65.461c-8.178-8.547-13.407-19.974-14.023-32.613l-0.005-0.117c0.563-12.767 5.806-24.21 14.042-32.746l-0.014 0.015 350.685-350.685c4.275-4.148 6.927-9.947 6.927-16.365s-2.653-12.217-6.922-16.36l-0.006-0.005-350.685-350.685c-8.178-8.547-13.407-19.974-14.023-32.613l-0.005-0.117c0.563-12.767 5.806-24.21 14.042-32.746l-0.014 0.015 65.461-65.461c8.547-8.178 19.974-13.407 32.613-14.023l0.117-0.005c12.756 0.62 24.183 5.85 32.749 14.045l-0.019-0.018 350.685 350.685c4.148 4.275 9.947 6.927 16.365 6.927s12.217-2.653 16.36-6.922l0.005-0.006 350.685-350.685c8.547-8.178 19.974-13.407 32.613-14.023l0.117-0.005c12.767 0.563 24.21 5.806 32.746 14.042l-0.015-0.014 65.461 65.461c8.221 8.521 13.464 19.964 14.024 32.624l0.004 0.107c-0.62 12.756-5.85 24.183-14.045 32.749l0.018-0.019z" />
<glyph unicode="&#xe901;" glyph-name="phone" d="M1016.38 139.34l-213.4 213.4c-4.547 4.55-10.83 7.365-17.77 7.365s-13.223-2.815-17.77-7.365l-112.12-112.12c-30.48 8.42-111.48 38-204.7 131.24-96.7 96.7-135.88 193.1-145.6 220.36l111.46 111.46c4.556 4.548 7.375 10.835 7.375 17.78s-2.819 13.232-7.375 17.78v0l-213.4 213.4c-4.55 4.551-10.836 7.367-17.78 7.367s-13.23-2.815-17.78-7.367l-124.74-124.76c-1.577-1.572-2.944-3.353-4.056-5.298l-0.064-0.122-0.24-0.26c-99.32-122 0-394.9 226.36-621.18 161.1-161.020 356.1-265.020 497.1-265.020 50.3 0 91.74 12.74 123.16 37.88l2.94 2c1.324 0.909 2.481 1.882 3.537 2.957l124.943 124.943c4.555 4.544 7.373 10.828 7.373 17.77s-2.818 13.226-7.373 17.77v0z" />
</font></defs></svg>