<svg width="40" height="40" viewBox="0 0 40 40" fill="none" xmlns="http://www.w3.org/2000/svg">
<path d="M19.9996 5.35888C22.5696 5.35888 25.0943 6.03538 27.32 7.32037C29.5457 8.60536 31.3939 10.4536 32.6789 12.6793C33.9639 14.9049 34.6404 17.4296 34.6404 19.9996C34.6404 22.5696 33.9639 25.0943 32.6789 27.32L19.9996 19.9996V5.35888Z" fill="#F4D9A4"/>
<path d="M7.32061 27.32C6.03561 25.0943 5.35912 22.5696 5.35912 19.9996C5.35912 17.4297 6.03561 14.9049 7.32061 12.6793C8.6056 10.4536 10.4538 8.60537 12.6795 7.32038C14.9052 6.03538 17.4299 5.35889 19.9999 5.35889L19.9999 19.9996L7.32061 27.32Z" fill="#E7EAEE"/>
<path d="M32.6793 27.3201C31.3943 29.5457 29.5461 31.3939 27.3204 32.6789C25.0947 33.9639 22.57 34.6404 20 34.6404C17.43 34.6404 14.9053 33.9639 12.6796 32.6789C10.4539 31.3939 8.60573 29.5457 7.32074 27.3201L20 19.9997L32.6793 27.3201Z" fill="#DCDCDC"/>
</svg>
