<?xml version="1.0" encoding="utf-8"?>
<!-- Generator: Adobe Illustrator 21.0.2, SVG Export Plug-In . SVG Version: 6.00 Build 0)  -->
<svg version="1.1" id="Слой_1" xmlns="http://www.w3.org/2000/svg" xmlns:xlink="http://www.w3.org/1999/xlink" x="0px" y="0px"
	 viewBox="0 0 131.9 44.2" style="enable-background:new 0 0 131.9 44.2;" xml:space="preserve">
<title>logo_header</title>
<g id="Слой_2">
	<g id="Слой_1-2">
		<path d="M12.9,20.9l-1.2,11.5h3v0.8h-3.1L10.5,44H9.6l1.2-10.9H4.3L3.2,44h-1l1.2-10.9H0v-0.8h3.5l1.2-11.5H1.2V20h3.5l0.9-9h0.9
			l-0.9,9H12l0.9-9h0.9l-0.9,9h3v0.8h-3V20.9z M12,20.9H5.5L4.4,32.3h6.4L12,20.9z"/>
		<path d="M33.3,19v0.6h-1V19c0-3.9-1.5-7.2-5.7-7.2s-5.8,3.2-5.8,7.1c0,8.4,12.6,8.2,12.6,17.1c0,4.6-1.9,8.2-6.9,8.2
			s-6.9-3.6-6.9-8.2v-1.6h1V36c0,4,1.5,7.1,5.9,7.1s5.9-3.2,5.9-7.1c0-8.3-12.6-8-12.6-17.1c0-4.8,2-8.1,6.8-8.1
			C31.4,10.9,33.3,14.5,33.3,19z"/>
		<path d="M38,28v16h-1V11.1h1v16h11.9v-16h1V44h-1V28H38z"/>
		<path d="M65.4,26.9v0.9h-9.7V43h11.5v1H54.7V11.1h12.5v1H55.7v14.8C55.7,26.9,65.4,26.9,65.4,26.9z"/>
		<path d="M71.8,44h-1V11.1h1.5l11.6,30.8V11.1h1V44h-1.3L71.8,12.6V44z"/>
		<path d="M102.2,19v0.6h-1V19c0-3.9-1.5-7.2-5.7-7.2s-5.8,3.2-5.8,7.1c0,8.4,12.6,8.2,12.6,17.1c0,4.6-1.9,8.2-6.9,8.2
			s-6.9-3.6-6.9-8.2v-1.6h1V36c0,4,1.6,7.1,5.9,7.1s5.9-3.2,5.9-7.1c0-8.3-12.6-8-12.6-17.1c0-4.8,2-8.1,6.8-8.1
			C100.4,10.9,102.2,14.5,102.2,19z"/>
		<path d="M116.7,26.9v0.9H107V43h11.5v1h-12.6V11.1h12.5v1H107v14.8C107,26.9,116.7,26.9,116.7,26.9z"/>
	</g>
</g>
<g>
	<path d="M126,12.1c-3,0-5.5-2.5-5.5-5.5s2.5-5.5,5.5-5.5s5.5,2.5,5.5,5.5S129,12.1,126,12.1z M126,2.1c-2.5,0-4.5,2-4.5,4.5
		s2,4.5,4.5,4.5s4.5-2,4.5-4.5S128.5,2.1,126,2.1z"/>
</g>
<g>
	<path d="M126.9,7c0.1,0.1,0.2,0.2,0.3,0.4c0.1,0.2,0.2,0.3,0.4,0.5c0.1,0.2,0.3,0.4,0.4,0.6c0.1,0.2,0.2,0.4,0.3,0.6h-0.8
		c-0.1-0.2-0.2-0.4-0.3-0.6c-0.1-0.2-0.2-0.4-0.3-0.5c-0.1-0.2-0.2-0.3-0.3-0.5c-0.1-0.2-0.2-0.3-0.3-0.4c-0.1,0-0.1,0-0.2,0
		c-0.1,0-0.1,0-0.2,0h-0.6v2h-0.7v-5c0.2,0,0.4-0.1,0.7-0.1s0.5,0,0.7,0c0.7,0,1.3,0.1,1.6,0.4s0.6,0.7,0.6,1.2
		c0,0.3-0.1,0.6-0.3,0.9S127.3,6.9,126.9,7z M125.8,4.7c-0.3,0-0.5,0-0.7,0v1.9h0.5c0.2,0,0.5,0,0.7,0c0.2,0,0.4-0.1,0.5-0.1
		s0.2-0.2,0.3-0.3c0.1-0.1,0.1-0.3,0.1-0.5c0-0.2,0-0.3-0.1-0.5c-0.1-0.1-0.2-0.2-0.3-0.3c-0.1-0.1-0.3-0.1-0.4-0.2
		C126.2,4.7,126,4.7,125.8,4.7z"/>
</g>
</svg>
