<!-- Generator: Adobe Illustrator 22.0.1, SVG Export Plug-In  -->
<svg version="1.1"
	 xmlns="http://www.w3.org/2000/svg" xmlns:xlink="http://www.w3.org/1999/xlink" xmlns:a="http://ns.adobe.com/AdobeSVGViewerExtensions/3.0/"
	 x="0px" y="0px" width="368.6px" height="512.1px" viewBox="0 0 368.6 512.1" style="enable-background:new 0 0 368.6 512.1;"
	 xml:space="preserve">
<style type="text/css">
	.st0{fill:#DE86DE;}
</style>
<defs>
</defs>
<g>
	<path class="st0" d="M210.8,217.9l57.9-37.9c3.6-2.3,5-6.8,3.5-10.8L255,122.9c-1.3-3.6-4.7-5.9-8.5-5.9H122.2
		c-3.8,0-7.2,2.4-8.5,5.9l-17.2,46.3c-1.5,4,0,8.4,3.5,10.8l57.9,37.9C88.7,230.4,36.1,291.1,36.1,363.8
		c0,81.7,66.5,148.3,148.3,148.3s148.3-66.5,148.3-148.3C332.6,291,279.9,230.4,210.8,217.9z M184.3,474.8c-61.2,0-111-49.8-111-111
		s49.8-111,111-111s111,49.8,111,111S245.5,474.8,184.3,474.8z M240.1,135.2l6.1,16.5L218,135.2H240.1z M230.1,163.3h-91.4
		l45.8-26.7L230.1,163.3z M128.5,135.2h22.3l-28.5,16.6L128.5,135.2z M135.4,181.5h97.7l-48.9,32L135.4,181.5z"/>
	<path class="st0" d="M183.6,59.7c5,0,9.1-4.1,9.1-9.1V9.1c0-5-4.1-9.1-9.1-9.1s-9.1,4.1-9.1,9.1v41.6
		C174.5,55.7,178.6,59.7,183.6,59.7z"/>
	<path class="st0" d="M59.8,184.3c0-5-4.1-9.1-9.1-9.1H9.1c-5,0-9.1,4.1-9.1,9.1s4.1,9.1,9.1,9.1h41.6
		C55.7,193.4,59.8,189.3,59.8,184.3z"/>
	<path class="st0" d="M359.5,175.2h-41.6c-5,0-9.1,4.1-9.1,9.1s4.1,9.1,9.1,9.1h41.6c5,0,9.1-4.1,9.1-9.1
		C368.6,179.3,364.5,175.2,359.5,175.2z"/>
	<path class="st0" d="M82.7,97.7c1.8,1.8,4.1,2.7,6.4,2.7c2.3,0,4.7-0.9,6.4-2.7c3.6-3.5,3.6-9.3,0-12.9L66.1,55.4
		c-3.5-3.5-9.3-3.6-12.9,0c-3.6,3.5-3.6,9.3,0,12.9L82.7,97.7z"/>
	<path class="st0" d="M278.1,100.4c2.3,0,4.7-0.9,6.4-2.7l29.4-29.4c3.5-3.5,3.5-9.3,0-12.9c-3.5-3.6-9.3-3.5-12.9,0l-29.4,29.4
		c-3.5,3.5-3.5,9.3,0,12.9C273.5,99.5,275.8,100.4,278.1,100.4z"/>
</g>
</svg>
